{
    "configurations": [
        {
            "browse": {
                // "path": [
                //     "/usr/include/**",
                //     "/opt/ros/foxy/include/**",
                //     "${workspaceFolder}/src/**",
                //     "${workspaceFolder}/src/turtle_ctrl/include/**",
                //     "${workspaceFolder}/install/include/turtle_msgs/**"
                // ],
                "databaseFilename": "${workspaceFolder}/.vscode/browse.vc.db",
                "limitSymbolsToIncludedHeaders": false
            },
            "includePath": [
                "${workspaceFolder}/install/include/**",
                "/opt/ros/foxy/include/**",
                "${workspaceFolder}/src/turtle_ctrl/include/**",
                "${workspaceFolder}/src/turtle_msgs/include/**",
                "/usr/include/**"
            ],
            "name": "ROS",
            "intelliSenseMode": "gcc-x64",
            "compilerPath": "/usr/bin/gcc",
            "cStandard": "c11",
            "cppStandard": "c++14",
            "compileCommands": "${workspaceFolder}/build/compile_commands.json"
        }
    ],
    "version": 4
}